plan(1,init, sentence(true,move(print("[THERMOMETER]	start")),'','' ))
plan(1,send, sentence(true,move(print("[THERMOMETER]	sending 23")),'','' ))
plan(2,send, sentence(true,raise( tempChange , tempChange( 23) )'),'','' ))
plan(3,send, sentence(true,delay( 3000) ,'','' ))
plan(4,send, sentence(true,move(print("[THERMOMETER]	sending 21")),'','' ))
plan(5,send, sentence(true,raise( tempChange , tempChange( 21) )'),'','' ))
